; Wedit project file. Syntax: Name=value
[gauss]
PrjFiles=1
File1=gauss.c
UserCount=1
User1=KAMEL_SAADI
CmsDirectory=C:\WINDOWS\Desktop\Java\CMS
PutOptions=4
GetOptions=0
FileOptions=0
LockOptions=1
UsersOptions=1
ProjectFlags=8
ExtraCmsFilesCount=0
Frame=88 88 600 411
StatusBar=0,0,0,0
Name=gauss
CurrentFile=
OpenFiles=0
OpenFile1="C:\WINDOWS\Desktop\Java\gauss.c" 1 2 40 -644 395
ProjectPath=C:\WINDOWS\Desktop\Java
SourcesDir=C:\WINDOWS\Desktop\Java
Defines=
Includes=c:\lcc\include
Libraries=tcconio.lib
LinkerArgs=
ProjectTime=14662
MakeName=c:\lcc\bin\make.exe
MakeDir=C:\WINDOWS\Desktop\Java\lcc
Exe=c:\windows\desktop\java\lcc\gauss.exe
DebuggerArguments=
DbgExeName=c:\windows\desktop\java\lcc\gauss.exe
DbgDir=c:\windows\desktop\java\lcc
CompilerFlags=136
FortranFlags=0
EiffelFlags=0
Useframework=0
NumberOfBreakpoints=0
ErrorFile=C:\WINDOWS\Desktop\Java\lcc\gauss.err
NrOfFileProcessors=0
UserName=KAMEL_SAADI
